[
    {
        "id": 1,
        "tittle": "narnia",
        "author": "J.K Rowling",
        "price": 3000000,
        "publisher": "walt disney"
    },
    {
        "id": 2,
        "tittle": "narnia",
        "author": "budii",
        "price": 30000,
        "publisher": "gramedia"
    },
    {
        "id": 3,
        "tittle": "narnia",
        "author": "budii",
        "price": 30000,
        "publisher": "gramedia"
    },
    {
        "id": 4,
        "tittle": "narnia",
        "author": "budii",
        "price": 30000,
        "publisher": "gramedia"
    },
    {
        "id": 5,
        "tittle": "narnia",
        "author": "budii",
        "price": 30000,
        "publisher": "gramedia"
    },
    {
        "id": 6,
        "tittle": "harry",
        "author": "potter",
        "price": null,
        "publisher": "30000"
    },
    {
        "id": 7,
        "tittle": "harry",
        "author": "potter",
        "price": null,
        "publisher": "30000"
    }
]